Time (net);Direction;Transaction;Object;Variant;AccValue;Acc net times;Acc out times;Time line
;In;ON;LOGON_LOGOFF;DEFAULT;00:00:00;00:00:00;00:00:00;00:00:00
;In;SET;CONFIGURATION;;00:00:00;00:00:00;00:00:00;00:00:00
00:00:00;In;GET;SEQUENCE;OBJECT;00:00:01;00:00:00;00:00:00;00:00:01
00:00:00;In;GET;MEASURE_UNIT;DEFAULT;00:00:00;00:00:00;00:00:04;00:00:01
00:00:00;In;GET;SEQUENCE;OBJECT;00:00:07;00:00:04;00:08:03;00:00:13
00:00:00;In;NEW;PLND_ORD;DEFAULT;00:00:34;00:00:19;03:29:34;00:08:52
00:00:00;In;OFF;LOGON_LOGOFF;0;00:00:12;00:00:09;00:00:00;03:38:23