Time (net);Direction;Transaction;Object;Variant;AccValue;Acc net times;Acc out times;Time line
;In;ON;LOGON_LOGOFF;DEFAULT;00:00:00;00:00:00;00:00:00;00:00:00
;In;SET;CONFIGURATION;;00:00:00;00:00:00;00:00:00;00:00:00
00:00:00;In;GET;SEQUENCE;OBJECT;00:00:01;00:00:00;00:00:00;00:00:01
00:00:00;In;GET;MEASURE_UNIT;DEFAULT;00:00:00;00:00:00;00:00:03;00:00:01
00:00:00;In;GET;SEQUENCE;OBJECT;00:00:06;00:00:03;00:12:01;00:00:11
00:00:00;In;UPDATE;PLND_ORD;DEFAULT;00:00:19;00:00:09;00:02:31;00:12:31
00:00:01;In;UPDATE;PROCESS_ORD;DEFAULT;00:01:31;00:01:21;00:06:37;00:16:33
00:00:00;In;UPDATE;PL_PROC_ORD;DEFAULT;00:00:19;00:00:03;00:02:03;00:23:28
00:00:00;In;OFF;LOGON_LOGOFF;0;;;00:00:00;00:25:31