Time (net);Direction;Transaction;Object;Variant;AccValue;Acc net times;Acc out times;Time line
;In;ON;LOGON_LOGOFF;DEFAULT;00:00:00;00:00:00;00:00:00;00:00:00
;In;SET;CONFIGURATION;;00:00:00;00:00:00;00:00:00;00:00:00
00:00:00;In;GET;SEQUENCE;OBJECT;00:00:01;00:00:00;00:00:00;00:00:01
00:00:01;In;GET;MEASURE_UNIT;DEFAULT;00:00:00;00:00:01;00:00:03;00:00:01
00:00:00;In;GET;SEQUENCE;OBJECT;00:00:04;00:00:01;00:14:34;00:00:10
00:00:01;In;NEW;PROCESS_ORD;MATERIAL;00:00:34;00:00:19;00:01:59;00:16:42