Time (net);Direction;Transaction;Object;Variant;AccValue;Acc net times;Acc out times;Time line
00:00:01;In;NEW;SIM_PROD_ORD;DEFAULT;00:00:20;00:00:07;00:00:07;00:02:22
00:00:01;In;UPDATE;SIM_PROD_ORD;DEFAULT;00:00:20;00:00:20;00:00:04;00:02:49
00:00:00;In;DELETE;SIM_PROD_ORD;DEFAULT;00:00:02;00:00:02;00:00:11;00:02:55