Time (net);Direction;Transaction;Object;Variant;AccValue;Acc net times;Acc out times;Time line
00:00:04;In;NEW;SIM_PROD_ORD;DEFAULT;00:00:15;00:00:13;00:00:10;00:03:11
00:00:03;In;UPDATE;SIM_PROD_ORD;DEFAULT;00:00:12;00:00:10;00:00:05;00:03:32
00:00:00;In;DELETE;SIM_PROD_ORD;DEFAULT;;;00:00:02;00:03:39