Time (net);Direction;Transaction;Object;Variant;AccValue;Acc net times;Acc out times;Time line
;In;ON;LOGON_LOGOFF;DEFAULT;00:00:00;00:00:00;00:00:00;00:00:00
;In;SET;CONFIGURATION;;00:00:00;00:00:00;00:00:00;00:00:00
00:00:00;In;GET;SEQUENCE;OBJECT;00:00:00;00:00:00;00:00:00;00:00:00
00:00:00;In;GET;MEASURE_UNIT;DEFAULT;00:00:00;00:00:00;00:00:04;00:00:00
00:00:00;In;GET;SEQUENCE;OBJECT;00:00:04;00:00:03;00:06:45;00:00:08
00:00:00;In;UPDATE;PLND_ORD;DEFAULT;00:00:11;00:00:04;00:02:40;00:07:04
00:00:00;In;UPDATE;PL_PROC_ORD;DEFAULT;00:00:10;00:00:08;00:02:43;00:09:57
00:00:01;In;UPDATE;PROCESS_ORD;DEFAULT;00:01:20;00:01:16;00:22:58;00:13:58
00:00:00;In;OFF;LOGON_LOGOFF;0;;;00:00:00;00:36:55