Time (net);Direction;Transaction;Object;Variant;AccValue;Acc net times;Acc out times;Time line
;In;ON;LOGON_LOGOFF;DEFAULT;00:00:00;00:00:00;00:00:00;00:00:00
;In;SET;CONFIGURATION;;00:00:00;00:00:00;00:00:00;00:00:00
00:00:00;In;GET;SEQUENCE;OBJECT;00:00:00;00:00:00;00:00:00;00:00:00
00:00:00;In;GET;MEASURE_UNIT;DEFAULT;00:00:00;00:00:00;00:00:03;00:00:00
00:00:00;In;GET;SEQUENCE;OBJECT;00:00:04;00:00:01;-10:-10:-58;00:00:07
00:00:02;In;NEW;PROCESS_ORD;MATERIAL;00:01:19;00:01:20;00:32:30;00:-58:-26
00:00:00;In;OFF;LOGON_LOGOFF;0;00:00:11;00:00:04;00:00:00;00:-25:-57