Time (net);Direction;Transaction;Object;Variant;AccValue;Acc net times;Acc out times;Time line
;In;ON;LOGON_LOGOFF;DEFAULT;00:00:00;00:00:00;00:00:00;00:00:00
;In;SET;CONFIGURATION;;00:00:00;00:00:00;00:00:00;00:00:00
00:00:00;In;GET;SEQUENCE;OBJECT;00:00:00;00:00:00;00:00:00;00:00:00
00:00:00;In;GET;MEASURE_UNIT;DEFAULT;00:00:00;00:00:00;00:00:03;00:00:00
00:00:00;In;GET;SEQUENCE;OBJECT;00:00:04;00:00:01;00:39:43;00:00:07
00:00:01;In;NEW;PROCESS_ORD;MATERIAL;00:01:36;00:01:32;-10:-18:-28;00:41:26
00:00:00;In;OFF;LOGON_LOGOFF;0;00:00:14;00:00:10;00:00:00;00:22:52