Time (net);Direction;Transaction;Object;Variant;AccValue;Acc net times;Acc out times;Time line
;In;ON;LOGON_LOGOFF;DEFAULT;00:00:00;00:00:00;00:00:00;00:00:00
;In;SET;CONFIGURATION;;00:00:00;00:00:00;00:00:00;00:00:00
00:00:00;In;GET;SEQUENCE;OBJECT;00:00:00;00:00:00;00:00:00;00:00:00
00:00:00;In;GET;MEASURE_UNIT;DEFAULT;00:00:00;00:00:00;00:00:03;00:00:00
00:00:00;In;GET;SEQUENCE;OBJECT;00:00:03;00:00:02;00:06:51;00:00:07
00:00:01;In;NEW;PLND_ORD;DEFAULT;00:00:14;00:00:10;00:04:13;00:07:12
00:00:00;In;OFF;LOGON_LOGOFF;0;00:00:14;00:00:10;00:00:00;00:11:24